**
NetworkManager:ERROR:src/devices/tests/test-lldp.c:354:_test_recv_fixture_setup: assertion failed: (fd >= 0)
# random seed: R02S7ff9378187a0549c1ff76aee86af61c8
1..4
# Start of lldp tests
# Start of recv tests
./tools/run-nm-test.sh: line 185: 12236 Aborted                 "${NMTST_DBUS_RUN_SESSION[@]}" "$TEST" "$@"
# NetworkManager:ERROR:src/devices/tests/test-lldp.c:354:_test_recv_fixture_setup: assertion failed: (fd >= 0)
ERROR: src/devices/tests/test-lldp - too few tests run (expected 4, got 0)
ERROR: src/devices/tests/test-lldp - exited with status 134 (terminated by signal 6?)
