# random seed: R02S69f612772f42f9c89ae4698ca515d351
1..6
# Start of ip4-config tests
ok 1 /ip4-config/subtract
PASS: src/tests/test-ip4-config 1 /ip4-config/subtract
ok 2 /ip4-config/compare-with-source
PASS: src/tests/test-ip4-config 2 /ip4-config/compare-with-source
ok 3 /ip4-config/add-address-with-source
PASS: src/tests/test-ip4-config 3 /ip4-config/add-address-with-source
ok 4 /ip4-config/add-route-with-source
PASS: src/tests/test-ip4-config 4 /ip4-config/add-route-with-source
ok 5 /ip4-config/merge-subtract-mss-mtu
PASS: src/tests/test-ip4-config 5 /ip4-config/merge-subtract-mss-mtu
ok 6 /ip4-config/strip-search-trailing-dot
PASS: src/tests/test-ip4-config 6 /ip4-config/strip-search-trailing-dot
# End of ip4-config tests
